Added Component: Designator=C26(CAP 1812/4532 2.00MM)
Add component. Clean all parameters for all variants
Add component (AddParameter): Name = "Part Number"; Value = "C1812W104KDRACTU"; VariantName = "[No Variations]"
Add component (AddParameter): Name = "Value"; Value = "0.1uF"; VariantName = "[No Variations]"
Added Pin To Net: NetName=SUPPLY Pin=C26-1
Added Pin To Net: NetName=GND Pin=C26-2
Added Member To Class: ClassName=DRV8301 Member=Component C26 4.7uF_100V
