Change Component Footprint: Designator=C37 Old Footprint=CAP 0603/1608 New Footprint=CAP 1812/4532 2.00MM
Change Component Footprint: Designator=C39 Old Footprint=CAP 0603/1608 New Footprint=CAP 1812/4532 2.00MM
Change component parameters: Designator = "C37"; Footprint = "CAP 1812/4532 2.00MM"; UniqueID = "\JUIIDAEN\ITAYMDDT"
Change component parameters. Clean all parameters for all variants
Change component parameters (AddParameter): Name = "Part Number"; Value = "C1812W104KDRACTU"; VariantName = "[No Variations]"
Change component parameters (AddParameter): Name = "Value"; Value = "0.1uF"; VariantName = "[No Variations]"
Change component parameters: Designator = "C39"; Footprint = "CAP 1812/4532 2.00MM"; UniqueID = "\JUIIDAEN\XNSVAVWT"
Change component parameters. Clean all parameters for all variants
Change component parameters (AddParameter): Name = "Part Number"; Value = "C1812W104KDRACTU"; VariantName = "[No Variations]"
Change component parameters (AddParameter): Name = "Value"; Value = "0.1uF"; VariantName = "[No Variations]"
