M48
;Layer_Color=9474304
;FILE_FORMAT=4:3
METRIC,LZ
;TYPE=PLATED
T1F00S00C0.300
T3F00S00C0.762
T4F00S00C0.900
%
T01
X0093768Y0033909
Y0034671
X0094615
Y0033909
X0096012
Y0034671
X0096859
Y0033909
X0097705
Y0034671
X0098552
Y0033909
X0097894Y0047117
X0096881
X0095868
X0094856
X0093843
Y0048133
X0094856
X0095868
X0096881
X0097894
Y0049149
X0096881
X0095868
X0094856
X0093843
Y0050165
X0094856
X0095868
X0096881
X0097894
Y0051181
X0096881
X0095868
X0094856
X0093843
Y0052197
X0094856
X0095868
X0096881
X0097894
Y0053213
X0096881
X0095868
X0094856
X0093843
X009283
X0091818
X0090805
Y0052197
X0091818
X009283
Y0051181
X0091818
X0090805
Y0050165
X0091818
X009283
Y0049149
X0091818
X0090805
X0091818Y0048133
X009283
Y0047117
X0091818
X0085702Y0047244
X0084689
X0083676
X0082664
X0081651
X0080638
X0079626
Y004826
X0080638
X0081651
X0082664
X0083676
X0084689
X0085702
Y0049276
X0084689
X0083676
X0082664
X0081651
X0080638
X0079626
X0078613
Y0050292
X0079626
X0080638
X0081651
X0082664
X0083676
X0084689
X0085702
Y0051308
X0084689
X0083676
X0082664
X0081651
X0080638
X0079626
X0078613
Y0052324
X0079626
X0080638
X0081651
X0082664
X0083676
X0084689
X0085702
Y005334
X0084689
X0083676
X0082664
X0081651
X0080638
X0079626
X0078613
X0073383
X007237
X0071357
X0070345
X0069332
X0068319
X0067307
X0066294
Y0052324
X0067307
X0068319
X0069332
X0070345
X0071357
X007237
X0073383
Y0051308
X007237
X0071357
X0070345
X0069332
X0068319
X0067307
X0066294
Y0050292
X0067307
X0068319
X0069332
X0070345
X0071357
X007237
X0073383
Y0049276
X007237
X0071357
X0070345
X0069332
X0068319
X0067307
X0066294
X0067307Y004826
X0068319
X0069332
X0070345
X0071357
X007237
X0073383
Y0047244
X007237
X0071357
X0070345
X0069332
X0068319
X0067307
X0058801Y0047371
X0057531
Y0050419
X0058801
X0060071Y0050374
Y0041992
X0058801Y004191
X0057531
X0056261Y0040005
X005588Y003683
Y0033782
Y0030226
X0061722Y0032131
X0063246Y0032258
X0067564Y0033909
Y0034671
X0068411
Y0033909
X0069257
Y0034671
X0070104
Y0033909
X0071374
Y0034671
X0072263
Y0033909
X0073152
Y0034671
X0074041
Y0033909
X0079883
Y0034671
X008073
Y0033909
X0081576
Y0034671
X0082423
Y0033909
X008382
Y0034671
X0084667
Y0033909
X0085513
Y0034671
X008636
Y0033909
X0092075
Y0034671
X0092922
Y0033909
X005319Y0032639
X0051689
X005199Y0030734
X0051689Y0028702
X005319
X0049911Y0027051
X0049403Y0026162
X0048895Y00254
X0047244Y0026797
X0046228Y0026289
X0050673Y0022225
X0051689Y0020701
X0043307Y0017907
X0036715Y0017644
X0033286
X0028321Y0017399
X0028194Y0024257
X00282Y00274
X0029
X00282Y00282
X00274
Y00274
X0030734Y0028702
X00314Y00282
X00322
X0032893Y002921
X0031623Y0029337
X0030861Y0031496
X003175Y0032512
X0032258Y0033909
X0030861Y0034036
X0029452Y0032016
X0032766Y0031242
X0033401Y0030607
X0034163Y0031369
X0035052Y0031877
X0034925Y0030607
X00346Y00282
X0038596Y0032651
X0034417Y003683
X0034163Y0038227
X0027813Y0039624
X0027178Y0043434
X0027051Y0045339
X0026924Y0046355
Y0047244
X0025654Y0045466
X002413Y0045974
X0023495Y0043815
X0021463Y0042418
X002034Y0042819
X00186Y00426
Y00434
X00178
Y00426
X0017
Y00434
X00162
Y00426
X0016002Y0045529
X0020002
X00194Y0041
X001784Y004064
X0018161Y0034544
X0021717Y0034163
X0023241Y0034544
X0025146Y003429
X0025273Y0032893
X0024892Y0036195
X0022225Y0031115
X0021336Y0030607
X0021844Y0029083
X0019812Y0031496
X0020447Y0025273
X0022479Y0024765
X0022987Y0025654
X0016637Y0025527
Y0024511
X0015113Y0017272
X0014478Y0033528
X0020955Y0053086
X0021717Y0052451
X0022606Y0052959
X0023495Y0053721
X0042926Y0037973
X0047498Y0040005
X0053213
X005199Y0038354
X0051689Y0036195
X005319
X005199Y0034544
X0014224Y0031877
X0019558Y0055118
X0024511Y0057023
X0024257Y0058039
X0030099Y0057785
X0030226Y0058928
X0029845Y0060325
X0032258Y0058166
X0038608Y0060071
Y0062611
X0035052Y0066929
X0057531Y0063754
X0058801
Y0058293
X0057531
Y0055753
X0058801
X0060071Y0058375
X0069977Y0066675
X0082042
X0094488
T03
X0043053Y0023241
X0043098Y002494
X004318Y0042545
Y004445
T04
X0015748Y0007239
X0018288
X0020828
X0023368
X0025908
X0029718
X0032258
X0034798
X0037338
X0039878
X0042418
X0044958
X0047498
X0048514Y0068326
X0051054
X0053594
X0045974
X0043434
X0040894
X0025273Y0068199
X0022733
X0020193
X0017653
Y0065659
X0020193
X0022733
X0025273
X0014351Y0061976
Y0059436
Y0056896
M30
